…
pivot_longer(
  pulse_data,
  bdi_score_bl :bdi_score_12m,
  names_to = "visit",
  names_prefix = "bdi_score",
  values_to = "bdi"
) %>% 
  mutate(
    visit = recode(visit, "bl" ="00m")
  )
```

    ## # A tibble: 4,348 x 5
    ##       id   age sex   visit   bdi
    ##    <dbl> <dbl> <chr> <chr> <dbl>
    ##  1 10003  48.0 male  _bl       7
    ##  2 10003  48.0 male  _01m      1
    ##  3 10003  48.0 male  _06m      2
    ##  4 10003  48.0 male  _12m      0
    ##  5 10015  72.5 male  _bl       6
    ##  6 10015  72.5 male  _01m     NA
    ##  7 10015  72.5 male  _06m     NA
    ##  8 10015  72.5 male  _12m     NA
    ##  9 10022  58.5 male  _bl      14
    ## 10 10022  58.5 male  _01m      3
    ## # … with 4,338 more rows
…
